@startuml

/' 
    2015-10-11 ASB004
    '/
        title Incoming call
	    
	        actor User 
		    
		        box "UE"
			        participant UE_GUI
				        participant UE_Core
					    end box
					        
						    /'   SIB broadcast  '/
						        opt SIB timestamp invalid
							        BTS --> UE_Core: SIB Broadcast
								        activate UE_Core
									    end
									        deactivate UE_Core
										    
										        actor BTS
											    opt user mobile active in the network
											        
												    note over UE_Core, BTS
												            Attach procedure 
													        endnote
														    
														        BTS -> UE_Core:Attach Request (CallId)
															    activate UE_Core 
															        UE_Core --> UE_GUI : OnGoing Call Anonnce
																    UE_GUI --> User : OnGoing Call Anonnce
																        
																	    alt Accepted case        
																	            
																		            User --> UE_GUI : Pick Up call
																			            UE_GUI -> UE_Core : AcceptComingCall(CallId)
																				            UE_Core --> BTS  : Attach Response with **success**
																					            
																						            /'   Call Setup - Voice/Data call lasts  '/
																							            loop until conversation is over
																								    	        User -> UE_Core: voice
																											        UE_Core --> BTS: sendData(callId, data)
																													        BTS -> UE_Core: receiveData(callId, data)            
																															        UE_Core --> User: voice
																																	    end
																																	            
																																		        else Call rejected

																																					User --> UE_GUI  : Reject a call call
																																					        UE_GUI -> UE_Core : RejectCall(CallId)
																																						        UE_Core --> BTS  : Attach Response with failure code
																																							        
																																								    
																																								        else Call Not Received
																																									        note over UE_GUI, BTS
																																										            Repeating attampts to set a call
																																											            endnote      
																																												        end
																																													    
																																													        note over  User, BTS
																																														    Call Termintation
																																														        endnote
																																															    
																																															        UE_Core -> BTS: endCall(callId)
																																																    UE_Core -->UE_Core : Log information about a call
																																																        UE_Core --> BTS : Detach
																																																	    
																																																	        deactivate UE_Core 
																																																		    
																																																		        end
																																																			@end


